{
    "name": "universis_api_development",
    "script": "./bin/www",
    "watch": ["server", "bin"],
    "node_args": [
        "--require",
        "@babel/register"
    ],
    "env": {
        "IP": "0.0.0.0",
        "NODE_ENV": "development",
        "DEBUG": "api:*"
    }
}

