{
  "$schema": "https://themost-framework.github.io/themost/models/2018/2/schema.json",
  "@id": "https://universis.io/entities/DepartmentConfiguration",
  "name": "DepartmentConfiguration",
  "description": "Contains a collection of configuration for a department",
  "title": "DepartmentConfiguration",
  "abstract": false,
  "sealed": false,
  "hidden": true,
  "version": "1.4",
  "implements": "Thing",
  "fields": [
    {
      "@id": "http://schema.org/additionalType",
      "name": "additionalType",
      "title": "additionalType",
      "description": "An additional type for the item.",
      "type": "URL",
      "value": "javascript:return this.model.name",
      "nullable": false,
      "readonly": true
    },
    {
      "@id": "https://universis.io/properties/department",
      "name": "department",
      "title": "department",
      "description": "An department associated with this configuration",
      "type": "Department",
      "editable": false,
      "nullable": false
    },
    {
      "name": "examPeriod",
      "title": "Current exam period",
      "description": "Current exam period",
      "type": "ExamPeriod",
      "expandable": true
    },
    {
      "name": "examYear",
      "title": "Current exam year",
      "description": "Current exam year",
      "type": "AcademicYear",
      "expandable": true
    },
    {
      "@id": "https://universis.io/properties/examParticipationPeriodStart",
      "name": "examParticipationPeriodStart",
      "description": "Defines the date and time when an exam participation period starts",
      "type": "Date"
    },
    {
      "@id": "https://universis.io/properties/examParticipationPeriodEnd",
      "name": "examParticipationPeriodEnd",
      "description": "Defines the date and time when an exam participation period  ends",
      "type": "Date"
    },
    {
      "@id": "https://universis.io/properties/gradeSubmissionPeriodStart",
      "name": "gradeSubmissionPeriodStart",
      "description": "Defines the date and time when grade submission starts",
      "type": "Date"
    },
    {
      "@id": "https://universis.io/properties/gradeSubmissionPeriodEnd",
      "name": "gradeSubmissionPeriodEnd",
      "description": "Defines the date and time when grade submission ends",
      "type": "Date"
    },
    {
      "name": "allowProgramGroupSelection",
      "title": "Επιλογή ομάδων προγράμματος σπουδών φοιτητή",
      "description": "Επιτρέπεται η επιλογή ομάδων φοιτητή εφόσον το πρόγραμμα σπουδών το επιτρέπει",
      "type": "Boolean",
      "value": "javascript:return false;"
    },
    {
      "name": "studentUniqueIdentifierFormat",
      "title": "Student unique identifier format",
      "description": "Student unique identifier format",
      "type": "Text",
      "size": 50
    },
    {
      "name": "studentUniqueIdentifierIndex",
      "title": "Student unique identifier index",
      "description": "Student unique identifier index",
      "type": "Integer"
    },
    {
      "name": "studentUsernameFormat",
      "title": "Student username format",
      "description": "Student username format",
      "type": "Text",
      "size": 50
    },
    {
      "name": "studentUsernameIndex",
      "title": "Student username index",
      "description": "Student username index",
      "type": "Integer"
    },
    {
      "name": "instructorUsernameFormat",
      "title": "Instructor username format",
      "description": "Instructor username format",
      "type": "Text",
      "size": 50
    }
  ],
  "constraints": [
    {
      "type": "unique",
      "fields": [
        "department"
      ]
    }
  ],
  "privileges": [
    {
      "mask": 15,
      "type": "global"
    },
    {
      "mask": 1,
      "type": "global",
      "account": "*"
    },
    {
      "mask": 15,
      "type": "self",
      "account": "Registrar",
      "filter": "department eq departments()"
    },
    {
      "mask": 15,
      "type": "global",
      "account": "Administrators"
    }
  ]
}
