{
  "$schema": "https://themost-framework.github.io/themost/models/2018/2/schema.json",
  "@id": "https://universis.io/schemas/EducationEventAttendanceListType",
  "name": "EducationEventAbsence",
  "description": "A model to track presence count of a student in an education event.",
  "title": "EducationEventAbsence",
  "inherits": "EducationEventAttendance",
  "abstract": false,
  "sealed": false,
  "version": "0.1",
  "fields": [
    {
      "name": "type",
      "title": "Type",
      "description": "Indicates the type of the absence, eg. justified/unjustified.",
      "type": "EducationEventAbsenceType",
      "expandable": true,
      "value": "javascript:return { alternateName:'unjustified' };"
    }
  ],
  "privileges": [
  ]
}
