{
  "$schema": "https://themost-framework.github.io/themost/models/2018/2/schema.json",
  "@id": "https://universis.io/schemas/EventLog",
  "name": "EventLog",
  "title": "Event log",
  "hidden": false,
  "sealed": false,
  "version": "0.1",
  "source": "EventLogBase",
  "view": "EventLogBase",
  "fields": [
    {
      "name": "id",
      "title": "Id",
      "description": "Id",
      "type": "Text",
      "nullable": false,
      "size": 36,
      "primary": true
    },
    {
      "name": "eventType",
      "title": "Event type",
      "description": "Event Type",
      "type": "Number",
      "nullable": false,
      "size": 4
    },
    {
      "name": "username",
      "title": "User",
      "description": "User",
      "type": "Text",
      "nullable": false,
      "size": 50
    },
    {
      "name": "title",
      "title": "Title",
      "description": "Title",
      "type": "Text",
      "nullable": false,
      "size": 512
    },
    {
      "name": "eventDate",
      "title": "Date",
      "description": "Date",
      "type": "DateTime",
      "nullable": false,
      "size": 8,
      "value": "javascript:return this.now();"
    },
    {
      "name": "eventSource",
      "title": "Event Source",
      "description": "Event Source",
      "type": "Text",
      "nullable": false,
      "size": 50,
      "value": "javascript:return 'UNISTUDENT';"
    },
    {
      "name": "eventApplication",
      "title": "Application",
      "description": "Application",
      "type": "Text",
      "nullable": false,
      "size": 50,
      "value": "javascript:return 'GRUNI';"
    },
    {
      "name": "dateModified",
      "title": "dateModified",
      "description": "dateModified",
      "type": "DateTime",
      "nullable": false,
      "value": "javascript:return new Date();",
      "calculation": "javascript:return this.now();"
    }
  ],
  "privileges": [
    {
      "mask": 15,
      "type": "global"
    }
  ],
  "eventListeners": [
  ]
}
