{
  "$schema": "https://themost-framework.github.io/themost/models/2018/2/schema.json",
  "@id": "https://universis.io/entities/InstituteLocale",
  "name": "InstituteLocale",
  "description": "Contains a collection of extra field required for institute.",
  "title": "InstituteLocale",
  "abstract": false,
  "contains": "Institute",
  "hidden": true,
  "sealed": false,
  "version": "1.2",
  "fields": [
    {
      "@id": "https://themost.io/schemas/id",
      "name": "id",
      "title": "Id",
      "description": "Id",
      "type": "Text",
      "nullable": false,
      "size": 36,
      "primary": true,
      "value":"javascript:return this.newGuid();"
    },
    {
      "@id": "https://themost.io/schemas/object",
      "name": "object",
      "title": "object",
      "description": "The parent item.",
      "type": "Institute"
    },
    {
      "@id": "http://schema.org/inLanguage",
      "name": "inLanguage",
      "title": "inLanguage",
      "description": "The language of this item.",
      "type": "Text",
      "size": 5,
      "readonly": true
    },
    {
      "@id": "http://schema.org/name",
      "name": "name",
      "title": "Name",
      "description": "The name of the item.",
      "type": "Text",
      "size": 150,
      "nullable": true
    },
    {
      "name": "contactPerson1",
      "title": "Όνομα υπεύθυνου 1",
      "description": "Όνομα υπεύθυνου επικοινωνίας 1",
      "type": "Text",
      "nullable": true,
      "size": 60
    },
    {
      "name": "contactPerson2",
      "title": "Όνομα υπεύθυνου 2",
      "description": "Όνομα υπεύθυνου επικοινωνίας 2",
      "type": "Text",
      "nullable": true,
      "size": 60
    },
    {
      "name": "notes",
      "title": "Σημειώσεις",
      "description": "Σημειώσεις",
      "type": "Note",
      "many": false
    }
  ],
  "constraints": [
    {
      "type": "unique",
      "fields": [
        "object", "inLanguage"
      ]

    }
  ],
  "privileges": [
    {
      "mask": 1,
      "type": "global",
      "account": "*"
    },
    {
      "mask": 15,
      "type": "global"
    },
    {
      "mask": 15,
      "type": "global",
      "account": "Administrators"
    }
  ]
}
