{
  "$schema": "https://themost-framework.github.io/themost/models/2018/2/schema.json",
  "@id": "https://themost.io/schemas/StudentMessage",
  "name": "InstructorMessage",
  "description": "The act of requesting something",
  "title": "Instructor messaging",
  "abstract": false,
  "sealed": false,
  "inherits": "Message",
  "version": "1.1",
  "fields": [
    {
      "name": "instructor",
      "title": "Instructor",
      "description": "Instructor",
      "type": "Instructor",
      "nullable": false,
      "editable": false
    },
    {
      "name": "recipient",
      "title": "Recipient",
      "description": "The email addresses of the primary recipients of this message.",
      "type": "Account",
      "nullable": false,
      "readonly": true,
      "value": "javascript:return this.model.context.model('Instructor').where('id').equal(this.target.instructor).select('user').silent().value();"
    }
  ],
  "privileges": [
    {
      "mask": 15,
      "type": "global"
    },
    {
      "mask": 15,
      "type": "global",
      "account": "Administrators"
    },
    {
      "mask": 3,
      "type": "self",
      "filter": "owner eq me()"
    },
    {
      "mask": 1,
      "type": "self",
      "filter": "instructor eq instructor()",
      "account": "Instructors"
    },
    {
      "mask": 15,
      "type": "self",
      "account": "Registrar",
      "filter": "instructor/department eq departments()"
    }
  ]
}
