{
  "$schema": "https://themost-framework.github.io/themost/models/2018/2/schema.json",
  "@id": "https://universis.io/schemas/MeanGradeRuleEx",
  "name": "MeanGradeRuleEx",
  "type": "memory",
  "title": "Mean grade by semesters rules expanded",
  "hidden": true,
  "sealed": false,
  "version": "0.1",
  "fields": [
    {
      "name": "id",
      "title": "Id",
      "description": "Id",
      "type": "Integer",
      "nullable": false,
      "primary": true
    },
    {
      "name": "target",
      "title": "The target object",
      "description": "The target object",
      "type": "Text",
      "nullable": false
    },
    {
      "name": "targetType",
      "title": "Target type",
      "description": "The type of the target object",
      "type": "Text",
      "nullable": false
    },
    {
      "name": "refersTo",
      "title": "Refers to model",
      "description": "Refers to model",
      "type": "Text",
      "nullable": false
    },
    {
      "name": "additionalType",
      "title": "The rule additional type",
      "description": "The rule additional type",
      "type": "Text",
      "nullable": false
    },
    {
      "name": "value1",
      "property": "examYears",
      "type": "Text"
    },
    {
      "name": "value2",
      "property": "registrationYears",
      "type": "Text"
    },
    {
      "name": "checkValues",
      "property": "semesters",
      "type": "Text"
    },
   {
      "name": "value3",
      "property": "grade",
      "type": "Number"
    },
    {
      "name": "value4",
      "property": "ruleCheckType",
      "type": "Text",
      "description": "Επιλογές μέσου όρου (RuleMeanGradeType)"
    },
    {
      "name": "value5",
      "property": "totalCourses",
      "type": "Text",
      "description": "Σύνολα ανά τύπο πχ 1;4#2;5 => 4Υ, 5Ε"
    },
    {
      "name": "value7",
      "property": "excludeCourses",
      "type": "Course",
      "many": true,
      "mapping": {
        "parentModel": "MeanGradeRuleEx",
        "parentField": "id",
        "childModel": "Course",
        "childField": "id",
        "associationType": "junction"
      }
    },
    {
      "name": "value8",
      "property": "excludeCourseTypes",
      "type": "CourseType",
      "many": true,
      "mapping": {
        "parentModel": "MeanGradeRuleEx",
        "parentField": "id",
        "childModel": "CourseType",
        "childField": "id",
        "associationType": "junction"
      }
    },
    {
      "name": "value9",
      "property": "courseCategories",
      "type": "CourseCategory",
      "many": true,
      "mapping": {
        "parentModel": "MeanGradeRuleEx",
        "parentField": "id",
        "childModel": "CourseCategory",
        "childField": "id",
        "associationType": "junction"
      }
    },
    {
      "name": "value10",
      "property": "courseSectors",
      "type": "CourseSector",
      "many": true,
      "mapping": {
        "parentModel": "MeanGradeRuleEx",
        "parentField": "id",
        "childModel": "CourseSector",
        "childField": "id",
        "associationType": "junction"
      }
    },
    {
      "name": "value11",
      "property": "courseAreas",
      "type": "CourseArea",
      "many": true,
      "mapping": {
        "parentModel": "MeanGradeRuleEx",
        "parentField": "id",
        "childModel": "CourseArea",
        "childField": "id",
        "associationType": "junction"
      }
    },
    {
      "name": "value12",
      "property": "totalCoursesPerType",
      "type": "Text",
      "description": "Σύνολα ανά τύπο που πρέπει να μετρήσουν στον ΜΟ πχ 1;4#2;5 => 4Υ, 5Ε"
    },
    {
      "name": "ruleExpression",
      "title": "The rule expression",
      "description": "The rule expression",
      "type": "Text"
    },
    {
      "name": "programSpecialty",
      "title": "The rule for specific program specialty",
      "description": "The rule program specialty",
      "type": "Integer"
    }
  ],
  "privileges": [
    {
      "mask": 1,
      "type": "global",
      "account": "*"
    },
    {
      "mask": 15,
      "type": "global"
    }
  ]
}
