{
    "$schema": "https://themost-framework.github.io/themost/models/2018/2/schema.json",
    "@id": "http://schema.org/PercentileRankAction",
    "name": "PercentileRankAction",
    "description": "The act of organizing tasks/objects/events by associating resources to it.",
    "title": "PercentileRankAction",
    "abstract": false,
    "sealed": false,
    "inherits": "UpdateAction",
    "version": "1.1",
    "fields": [
        {
            "name": "rankType",
            "title": "Rank type",
            "description": "The rank type",
            "type": "RankType",
            "nullable": false,
            "editable": false
        },
        {
            "name": "totalStudents",
            "title": "Total students",
            "description": "The total number of students for which percentile ranks will be calculated",
            "type": "Integer"
        },
        {
            "name": "targetIdentifier",
            "title": "The target object",
            "description": "The target object",
            "type": "Text",
            "nullable": true
        },
        {
            "name": "targetType",
            "title": "Target type",
            "description": "The type of the target object",
            "type": "Text",
            "nullable": false
        },
        {
            "name": "results",
            "description": "The results of the percentile rank calculations",
            "type": "PercentileRankActionResult",
            "many": true,
            "mapping": {
                "parentModel": "PercentileRankAction",
                "childModel": "PercentileRankActionResult",
                "parentField": "id",
                "childField": "action",
                "cascade": "none",
                "associationType": "association"
            }
        }
    ],
    "privileges": [
        {
            "mask": 15,
            "type": "global"
        },
        {
            "mask": 15,
            "type": "global",
            "account": "Administrators"
        },
        {
            "mask": 1,
            "type": "global",
            "account": "Registrar"
        }
    ]
}
