{
  "$schema": "https://themost-framework.github.io/themost/models/2018/2/schema.json",
  "@id": "https://universis.io/schemas/PeriodRegistrationEffectiveStatus",
  "name": "PeriodRegistrationEffectiveStatus",
  "type": "lookup",
  "title": "Αναλυτική κατάσταση περιόδου εγγραφής φοιτητή",
  "hidden": false,
  "sealed": false,
  "abstract": false,
  "caching": "always",
  "implements": "Enumeration",
  "category": "lookup",
  "version": "1.1",
  "fields": [
    {
      "name": "id",
      "title": "Id",
      "type": "Counter",
      "nullable": false,
      "primary": true
    },
    {
      "name": "code",
      "title": "Κωδικός",
      "type": "Text",
      "nullable": false
    },
    {
      "name": "status",
      "title": "Κατάσταση",
      "type": "Text",
      "nullable": false
    }
  ],
  "privileges": [
    {
      "mask": 1,
      "type": "global",
      "account": "*"
    },
    {
      "mask": 15,
      "type": "global"
    },
    {
      "mask": 15,
      "type": "global",
      "account": "Administrators"
    }
  ],
  "constraints": [
    {
      "type": "unique",
      "description": "Code must be unique across different records",
      "fields": [
        "code"
      ]
    },
    {
      "type": "unique",
      "description": "Name must be unique across different records",
      "fields": [
        "name"
      ]
    }
  ],
  "seed": [
    {
      "status": "open",
      "code": "OPEN_NO_TRANSACTION",
      "name": "Ανοιχτή (Είναι περίοδος δηλώσεων και δεν έχει γίνει υποβολή δήλωσης μαθημάτων)"
    },
    {
      "status": "open",
      "code": "OPEN_NO_REGISTRATION",
      "name": "Ανοιχτή (Είναι περίοδος δηλώσεων και δεν έχει γίνει εγγραφή εξαμήνου)"
    },
    {
      "status": "closed",
      "code": "CLOSED_NO_TRANSACTION",
      "name": "Κλειστή (Δεν έχει γίνει υποβολή δήλωσης μαθημάτων και η περίοδος δηλώσεων είναι κλειστή)"
    },
    {
      "status": "closed",
      "code": "CLOSED_NO_REGISTRATION",
      "name": "Κλειστή (Δεν είναι περίοδος δηλώσεων και δεν έχει γίνει υποβολή δήλωσης μαθημάτων)"
    },
    {
      "status": "open",
      "code": "SELECT_SPECIALTY",
      "name": "Ανοιχτή (Είναι περίοδος δηλώσεων και πρέπει να δηλωθεί η κατεύθυνση πριν γίνει υποβολή δήλωσης μαθημάτων)"
    },
    {
      "status": "open",
      "code": "PENDING_TRANSACTION",
      "name": "Ανοιχτή (Είναι περίοδος δηλώσεων, έχει γίνει υποβολή δήλωσης μαθημάτων και αναμένεται έγκριση από τη Γραμματεία)"
    },
    {
      "status": "open",
      "code": "SUCCEEDED_TRANSACTION",
      "name": "Ανοιχτή (Είναι περίοδος δηλώσεων, έχει γίνει υποβολή δήλωσης μαθημάτων και εγκρίθηκε από τη Γραμματεία επιτυχώς)"
    },
    {
      "status": "open",
      "code": "FAILED_TRANSACTION",
      "name": "Ανοιχτή (Είναι περίοδος δηλώσεων, έχει γίνει υποβολή δήλωσης μαθημάτων και απορρίφθηκε από τη Γραμματεία)"
    },
    {
      "status": "open",
      "code": "P_SUCCEEDED_TRANSACTION",
      "name": "Ανοιχτή (Είναι περίοδος δηλώσεων, έχει γίνει υποβολή δήλωσης μαθημάτων και εγκρίθηκε μερικώς από τη Γραμματεία)"
    },
    {
      "status": "open",
      "code": "P_SYSTEM_TRANSACTION",
      "name": "Ανοιχτή (Είναι περίοδος δηλώσεων, έχει γίνει υποβολή δήλωσης μαθημάτων από τη Γραμματεία)"
    },
    {
      "status": "closed",
      "code": "CLOSED_REGISTRATION_PERIOD",
      "name": "Κλειστή (Δεν είναι περίοδος δηλώσεων)"
    },
    {
      "status": "closed",
      "code": "CLOSED_PERIOD_NO_TRANSACTION",
      "name": "Κλειστή (Δεν είναι περίοδος δηλώσεων και δεν έχει γίνει υποβολή δήλωσης)"
    },
    {
      "status": "closed",
      "code": "INACTIVE_STUDENT",
      "name": "Ο φοιτητής δεν είναι ενεργός"
    },
    {
      "status": "closed",
      "code": "CLOSED_REGISTRATION",
      "name": "Η δήλωση μαθημάτων δεν μπορεί να τροποποιηθεί."
    }
  ],
  "eventListeners": [
    {
      "name": "Lookup Cache Listener",
      "type": "./listeners/lookup-cache-listener.js"
    }
  ]
}