{
  "$schema": "https://themost-framework.github.io/themost/models/2018/2/schema.json",
  "@id": "http://schema.org/RegisterAction",
  "name": "RegisterAction",
  "description": "<p>The act of registering to be a user of a service, product or web page.</p>\n\n<p>Related actions:</p>\n\n<ul>\n<li><a class=\"localLink\" href=\"http://schema.org/JoinAction\">JoinAction</a>: Unlike JoinAction, RegisterAction implies you are registering to be a user of a service, <em>not</em> a group/team of people.</li>\n<li>[FollowAction]]: Unlike FollowAction, RegisterAction doesn't imply that the agent is expecting to poll for updates from the object.</li>\n<li><a class=\"localLink\" href=\"http://schema.org/SubscribeAction\">SubscribeAction</a>: Unlike SubscribeAction, RegisterAction doesn't imply that the agent is expecting updates from the object.</li>\n</ul>\n",
  "title": "RegisterAction",
  "abstract": false,
  "sealed": false,
  "inherits": "InteractAction",
  "version": "1.5",
  "fields": [],
  "privileges": [
    {
      "mask": 15,
      "type": "global"
    },
    {
      "mask": 15,
      "type": "global",
      "account": "Administrators"
    }
  ]
}
