{
  "$schema": "https://themost-framework.github.io/themost/models/2018/2/schema.json",
  "@id": "https://universis.io/schemas/ReportVariableValue",
  "name": "ReportVariableValue",
  "title": "ReportVariableValues",
  "version": "1.7",
  "hidden": true,
  "implements": "Thing",
  "fields": [
    {
      "name": "reportVariable",
      "title": "Report variable type",
      "type": "ReportVariableType",
      "nullable": false
    },
    {
      "@id": "http://schema.org/inLanguage",
      "name": "inLanguage",
      "title": "inLanguage",
      "type": "Text"
    },
    {
      "name": "valueNote",
      "title": "valueNote",
      "type": "Note"
    },
    {
      "name": "valueText",
      "title": "valueText",
      "type": "Text"
    },
    {
      "name": "valueNumber",
      "title": "valueNumber",
      "type": "Number"
    },
    {
      "name": "valueBoolean",
      "title": "valueBoolean",
      "type": "Boolean"
    }
  ],
  "privileges": [
    {
      "mask": 15,
      "type": "global",
      "account": "Registrar"
    },
    {
      "mask": 15,
      "type": "global"
    },
    {
      "mask": 15,
      "type": "global",
      "account": "Administrators"
    }
  ]
}
