{
    "$schema": "https://themost-framework.github.io/themost/models/2018/2/schema.json",
    "@id": "http://schema.org/Role",
    "name": "Role",
    "description": "Represents additional information about a relationship or property.",
    "title": "Role",
    "implements": "Thing",
    "version": "1.0",
    "fields": [
        {
            "@id": "http://schema.org/additionalType",
            "name": "additionalType",
            "readonly": true,
            "nullable": false,
            "type": "Text",
            "value": "javascript:return this.model.name;"
        },
        {
            "@id": "http://schema.org/roleName",
            "name": "roleName",
            "description": "A role played, performed or filled by a person or organization.",
            "type": "Text"
        },
        {
            "@id": "http://schema.org/startDate",
            "name": "startDate",
            "title": "startDate",
            "description": "The end date and time of the item",
            "type": "DateTime",
            "value": "javascript:return new Date();"
        },
        {
            "@id": "http://schema.org/endDate",
            "name": "endDate",
            "title": "endDate",
            "description": "The start date and time of the item",
            "type": "DateTime"
        }
    ],
    "privileges": [
        {
            "mask": 15,
            "type": "global"
        },
        {
            "mask": 15,
            "type": "global",
            "account": "Administrators"
        }
    ]
}
