{
  "$schema": "https://themost-framework.github.io/themost/models/2018/2/schema.json",
  "@id": "https://universis.io/schemas/Scholarship",
  "name": "Scholarship",
  "title": "Υποτροφία",
  "description": "Στοιχεία υποτροφίας",
  "hidden": false,
  "sealed": false,
  "version": "0.2",
  "source": "ScholarshipData",
  "view": "ScholarshipData",
  "fields": [
    {
      "name": "id",
      "title": "Κωδικός",
      "description": "Ο μοναδικός κωδικός της υποτροφίας",
      "type": "Integer",
      "nullable": false,
      "primary": true,
      "value": "javascript:return this.newid();"
    },
    {
      "name": "department",
      "title": "Τμήμα",
      "description": "Το τμήμα που προσφέρει την υποτροφία.",
      "type": "Department",
      "nullable": false,
      "editable": false
    },
    {
      "name": "name",
      "title": "Ονομασία",
      "description": "Η ονομασία της υποτροφίας",
      "type": "Text",
      "nullable": true,
      "size": 1024
    },
    {
      "name": "organization",
      "title": "Οργανισμός",
      "description": "Ο οργανισμός που προσφέρει την υποτροφία",
      "type": "Company"
    },
    {
      "name": "contactName",
      "title": "Όνομα επαφής",
      "description": "Το όνομα του υπεύθυνου επικοινωνίας.",
      "type": "Text",
      "nullable": true,
      "size": 255
    },
    {
      "name": "year",
      "title": "Ακαδημαϊκό έτος",
      "description": "Το ακαδημαϊκό έτος που προσφέρεται η υποτροφία.",
      "type": "AcademicYear",
      "expandable": true,
      "nullable": false
    },
    {
      "name": "totalStudents",
      "title": "Σύνολο φοιτητών",
      "description": "Ο μέγιστος αριθμός των φοιτητών που μπορεί να λάβει την υποτροφία.",
      "type": "Integer",
      "nullable": true
    },
    {
      "name": "notes",
      "title": "Σημειώσεις",
      "description": "Σημειώσεις",
      "type": "Text",
      "nullable": true,
      "size": 1024,
      "many": false
    },
    {
      "name": "scholarshipType",
      "title": "Τύπος",
      "description": "Τύπος υποτροφίας",
      "type": "ScholarshipType",
      "expandable": true
    },
    {
      "name": "status",
      "title": "Κατάσταση",
      "description": "Κατάσταση υποτροφίας",
      "type": "ScholarshipStatus",
      "expandable": true,
      "mapping": {
        "parentModel": "ScholarshipStatus",
        "childModel": "Scholarship",
        "parentField": "identifier",
        "childField": "status",
        "associationType": "association"
      }
    },
    {
      "name": "dateModified",
      "title": "Ημερομηνία τροποποίησης",
      "description": "Η ημερομηνία τροποποίησης του στοιχείου",
      "type": "DateTime",
      "nullable": false,
      "value": "javascript:return new Date();",
      "calculation": "javascript:return this.now();"
    }
  ],
  "privileges": [
    {
      "mask": 15,
      "type": "global"
    },
    {
      "mask": 1,
      "type": "global",
      "account": "*"
    },
    {
      "mask": 15,
      "type": "global",
      "account": "Administrators"
    },
    {
      "mask": 15,
      "type": "self",
      "account": "Registrar",
      "filter": "department eq departments()"
    }
  ]
}
