{
  "$schema": "https://themost-framework.github.io/themost/models/2018/2/schema.json",
  "@id": "https://universis.io/schemas/Semester",
  "name": "Semester",
  "type": "lookup",
  "title": "Εξάμηνο",
  "hidden": false,
  "sealed": false,
  "abstract": false,
  "caching": "always",
  "implements": "Enumeration",
  "category": "lookup",
  "version": "1.2",
  "fields": [
    {
      "name": "id",
      "title": "Id",
      "type": "Integer",
      "nullable": false,
      "primary": true
    }
  ],
  "privileges": [
    {
      "mask": 1,
      "type": "global",
      "account": "*"
    },
    {
      "mask": 15,
      "type": "global"
    },
    {
      "mask": 15,
      "type": "global",
      "account": "Administrators"
    }
  ],
  "constraints": [
    {
      "type": "unique",
      "description": "Alternate name must be unique across different records",
      "fields": [
        "alternateName"
      ]
    },
    {
      "type": "unique",
      "description": "Name must be unique across different records",
      "fields": [
        "name"
      ]
    }
  ],
  "seed": [
    {
      "name": "Α εξάμηνο",
      "alternateName": "1",
      "id": 1
    },
    {
      "name": "Β εξάμηνο",
      "alternateName": "2",
      "id": 2
    },
    {
      "name": "Γ εξάμηνο",
      "alternateName": "3",
      "id": 3
    },
    {
      "name": "Δ εξάμηνο",
      "alternateName": "4",
      "id": 4
    },
    {
      "name": "Ε εξάμηνο",
      "alternateName": "5",
      "id": 5
    },
    {
      "name": "ΣΤ εξάμηνο",
      "alternateName": "6",
      "id": 6
    },
    {
      "name": "Ζ εξάμηνο",
      "alternateName": "7",
      "id": 7
    },
    {
      "name": "Η εξάμηνο",
      "alternateName": "8",
      "id": 8
    },
    {
      "name": "Θ εξάμηνο",
      "alternateName": "9",
      "id": 9
    },
    {
      "name": "Ι εξάμηνο",
      "alternateName": "10",
      "id": 10
    },
    {
      "name": "Κ εξάμηνο",
      "alternateName": "11",
      "id": 11
    },
    {
      "name": "Λ εξάμηνο",
      "alternateName": "12",
      "id": 12
    },
    {
      "name": "ΧΕΙΜ",
      "alternateName": "ΧΕΙΜ",
      "id": 251
    },
    {
      "name": "ΕΑΡ",
      "alternateName": "ΕΑΡ",
      "id": 252
    },
    {
      "name": "ΧΕΙΜ/ΕΑΡ",
      "alternateName": "Χ/Ε",
      "id": 255
    }
  ],
  "eventListeners": [
    {
      "name": "Lookup Cache Listener",
      "type": "./listeners/lookup-cache-listener.js"
    }
  ]
}
