{
  "$schema": "https://themost-framework.github.io/themost/models/2018/2/schema.json",
  "@id": "https://universis.io/schemas/StudentClassStatus",
  "name": "StudentClassStatus",
  "title": "Καταστάσεις δήλωσης μαθήματος",
  "hidden": false,
  "sealed": false,
  "version": "0.1",
  "source": "StudentClassStatusBase",
  "view": "StudentClassStatusBase",
  "fields": [
    {
      "name": "id",
      "title": "Κωδικός",
      "description": "Ο μοναδικός κωδικός του γνωστικού αντικειμένου",
      "type": "Integer",
      "nullable": false,
      "size": 4,
      "primary": true,
      "value": "javascript:return this.newid();",
      "readonly": true
    },
    {
      "name": "name",
      "title": "Ονομασία",
      "description": "Η ονομασία της κατάστασης δήλωσης",
      "type": "Text",
      "nullable": false,
      "size": 255
    },
    {
      "name": "description",
      "title": "Περιγραφή",
      "description": "Η περιγραφή της κατάστασης δήλωσης",
      "type": "Text",
      "nullable": false,
      "size": 255
    },
    {
      "name": "denyGrading",
      "title": "Απαγορεύει την εισαγωγή βαθμολογίας",
      "type": "Boolean"
    }
  ],
  "privileges": [
    {
      "mask": 1,
      "type": "global",
      "account": "*"
    },
    {
      "mask": 15,
      "type": "global"
    },
    {
      "mask": 15,
      "type": "global",
      "account": "Administrators"
    }
  ],
  "eventListeners": [
    {
      "name": "Lookup Cache Listener",
      "type": "./listeners/lookup-cache-listener.js"
    }
  ]
}
