{
  "$schema": "https://themost-framework.github.io/themost/models/2018/2/schema.json",
  "@id": "https://universis.io/schemas/StudentStatus",
  "name": "StudentStatus",
  "title": "Κατάσταση φοιτητή",
  "hidden": false,
  "sealed": false,
  "abstract": false,
  "caching": "always",
  "implements": "Enumeration",
  "category": "lookup",
  "version": "1.0",
  "fields": [
    {
      "name": "id",
      "title": "Id",
      "type": "Counter",
      "nullable": false,
      "primary": true
    }
  ],
  "privileges": [
    {
      "mask": 1,
      "type": "global",
      "account": "*"
    },
    {
      "mask": 15,
      "type": "global"
    },
    {
      "mask": 15,
      "type": "global",
      "account": "Administrators"
    }
  ],
  "constraints": [
    {
      "type": "unique",
      "description": "Alternate name must be unique across different records",
      "fields": [
        "alternateName"
      ]
    },
    {
      "type": "unique",
      "description": "Name must be unique across different records",
      "fields": [
        "name"
      ]
    }
  ],
  "seed": [
    {
      "alternateName": "active",
      "name": "Ενεργός",
      "description": "Ενεργός φοιτητής",
      "identifier": 1
    },
    {
      "alternateName": "removed",
      "name": "Διαγράφηκε",
      "description": "Ο φοιτητής έχει διαγραφεί",
      "identifier": 2
    },
    {
      "alternateName": "graduated",
      "name": "Πτυχιούχος",
      "description": "Ο φοιτητής έχει ορκιστεί",
      "identifier": 3
    },
    {
      "alternateName": "suspended",
      "name": "Σε αναστολή σπουδών",
      "description": "Ο φοιτητής βρίσκεται σε αναστολή σπουδών",
      "identifier": 4
    },
    {
      "alternateName": "declared",
      "name": "Ανακηρύχθηκε",
      "description": "Ο φοιτητής είναι υποψήφιος πτυχιούχος (εκκρεμεί η ορκωμοσία του)",
      "identifier": 6
    },
    {
      "alternateName": "candidate",
      "name": "Φοιτητής από προεγγραφή",
      "description": " Ο φοιτητής βρίσκεται σε κατάσταση προεγγραφής (δεν έχει επικυρωθεί η εγγραφή του στο τμήμα)",
      "identifier": 7
    }
  ],
  "eventListeners": [
    {
      "name": "Lookup Cache Listener",
      "type": "./listeners/lookup-cache-listener.js"
    }
  ]
}

