{
  "$schema": "https://themost-framework.github.io/themost/models/2018/2/schema.json",
  "@id": "https://universis.io/schemas/StudentInformation",
  "name": "StudentInformation",
  "title": "Επιπλέον πληροφορίες φοιτητή",
  "hidden": false,
  "sealed": false,
  "version": "0.1",
  "source": "StudentInformationBase",
  "view": "StudentInformationData",
  "fields": [
    {
      "name": "id",
      "title": "Κωδικός",
      "description": "Μοναδικός κωδικός εγγραφής",
      "type": "Integer",
      "nullable": false,
      "size": 4,
      "primary": true,
      "value": "javascript:return this.newid();",
      "readonly": true
    },
    {
      "name": "student",
      "title": "Φοιτητής",
      "description": "Φοιτητής",
      "type": "Student",
      "nullable": false,
      "editable": false
    },
    {
      "name": "infoDate",
      "title": "Ημερομηνία",
      "description": "Ημερομηνία",
      "type": "DateTime",
      "nullable": false
    },
    {
      "name": "published",
      "title": "Δημοσιευμένο",
      "description": "Δημοσιευμένο (ΝΑΙ/ΟΧΙ)",
      "type": "Boolean",
      "calculation": "javascript:return this.convertStrictBoolean(this.target,'published');",
      "nullable": false
    },
    {
      "name": "infoType",
      "title": "Τύπος πληροφορίας",
      "description": "Τύπος πληροφορίας",
      "type": "StudentInfoType",
      "nullable": false,
      "mapping": {
        "parentModel": "StudentInfoType",
        "childModel": "StudentInformation",
        "parentField": "identifier",
        "childField": "infoType",
        "associationType": "association"
      }
    },
    {
      "name": "notes",
      "title": "Σημειώσεις",
      "description": "Σημειώσεις",
      "type": "Text",
      "size": 1024
    },
    {
      "name": "description",
      "title": "Περιγραφή",
      "description": "Περιγραφή",
      "type": "Text",
      "size": 255,
      "nullable": false
    },
    {
      "name": "protocolNumber",
      "title": "Πρωτόκολλο",
      "type": "Text",
      "size": 50
    },
    {
      "name": "status",
      "title": "Κατάσταση",
      "description": "Κατάσταση (1: σε εξέλιξη, 2: ολοκληρώθηκε)",
      "type": "Integer"
    },
    {
      "name": "dateModified",
      "title": "Ημερομηνία τροποποίησης",
      "description": "Ημερομηνία τροποποίησης",
      "type": "DateTime",
      "nullable": false,
      "value": "javascript:return new Date();",
      "calculation": "javascript:return this.now();"
    }
  ],
  "eventListeners": [
    {
      "type": "@themost/data/previous-state-listener"
    }
  ],
  "privileges": [
    {
      "mask": 1,
      "type": "self",
      "filter": "student eq student() and published eq 1",
      "account": "Students"
    },
    {
      "mask": 15,
      "type": "global"
    },
    {
      "mask": 15,
      "type": "global",
      "account": "Administrators"
    },
    {
      "mask": 15,
      "type": "self",
      "account": "Registrar",
      "filter": "student/department eq departments()"
    }
  ]
}
