{
  "$schema": "https://themost-framework.github.io/themost/models/2018/2/schema.json",
  "@id": "https://universis.io/schemas/StudentCourseUpdateResult",
  "name": "StudentCourseUpdateResult",
  "title": "Αλλαγή ιδιοτήτων μαθήματος",
  "hidden": false,
  "version": "1.1",
  "fields": [
    {
      "@id": "https://themost.io/schemas/id",
      "name": "id",
      "title": "id",
      "description": "The identifier of the item.",
      "type": "Counter",
      "primary": true
    },
    {
      "name": "action",
      "title": "update action",
      "description": "Η ενέργεια ",
      "type": "CourseUpdateAction",
      "nullable": true,
      "editable": false
    },
    {
      "name": "student",
      "title": "Φοιτητής",
      "description": "Ο φοιτητής",
      "type": "Student",
      "nullable": false,
      "editable": false
    },
    {
      "name": "course",
      "title": "Μάθημα",
      "description": "Μάθημα",
      "type": "Course",
      "nullable": false,
      "editable": false
    },
    {
      "name": "updated",
      "title": "Ενημερώθηκε",
      "description": "Αν ενημερώθηκε η εγγραφή",
      "type": "Boolean",
      "nullable": false
    },
    {
      "name": "description",
      "title": "Περιγραφή",
      "type": "Note",
      "nullable": false
    },
    {
      "name": "result",
      "title": "Αποτέλεσμα",
      "type": "Note",
      "nullable": true
    },
    {
      "name": "createdBy",
      "title": "Created By",
      "description": "Created by user.",
      "type": "User",
      "value": "javascript:return this.user();",
      "readonly": true
    },
    {
      "@id": "https://themost.io/schemas/dateCreated",
      "name": "dateCreated",
      "title": "dateCreated",
      "description": "The date on which this item was created.",
      "type": "DateTime",
      "readonly": true,
      "value": "javascript:return new Date();"
    }
  ],
  "privileges": [
    {
      "mask": 15,
      "type": "global",
      "account": "Administrators"
    },
    {
      "mask": 15,
      "type": "global"
    },
    {
      "mask": 15,
      "type": "self",
      "account": "Registrar",
      "filter": "course/department eq departments()"
    }
  ]
}
