{
  "$schema": "https://themost-framework.github.io/themost/models/2018/2/schema.json",
  "@id": "https://themost.io/schemas/StudentMessage",
  "name": "StudentMessage",
  "description": "The act of requesting something",
  "title": "Student messaging",
  "abstract": false,
  "sealed": false,
  "inherits": "Message",
  "version": "1.1",
  "fields": [
    {
      "name": "student",
      "title": "Student",
      "description": "Student",
      "type": "Student",
      "nullable": false,
      "editable": false
    },
    {
      "name": "recipient",
      "title": "Recipient",
      "description": "The email addresses of the primary recipients of this message.",
      "type": "Account",
      "nullable": false,
      "readonly": true,
      "value": "javascript:return this.model.context.model('Student').where('id').equal(this.target.student).select('user').silent().value();"
    }
  ],
  "views": [
    {
      "name": "InstructorStudentMessages",
      "description": "This view contains the fields that is going to used for getting instructor outgoing messages.",
      "fields": [
        {
          "name": "student",
          "mapping": {
            "options": {
              "$select": "StudentSummary"
            }
          }
        },
        {
          "name": "recipient"
        },
        {
          "name": "subject"
        },
        {
          "name": "body"
        },
        {
          "name": "description"
        },
        {
          "name": "sender"
        },
        {
          "name": "category"
        },
        {
          "name": "dateReceived"
        },
        {
          "name": "owner"
        },
        {
          "name": "action"
        },
        {
          "name": "identifier"
        },
        {
          "name": "about"
        },
        {
          "name": "dateCreated"
        },
        {
          "name": "dateModified"
        },
        {
          "name": "createdBy"
        },
        {
          "name": "modifiedBy"
        },
        {
          "name": "attachments"
        }
      ]
    }
  ],
  "privileges": [
    {
      "mask": 15,
      "type": "global"
    },
    {
      "mask": 15,
      "type": "global",
      "account": "Administrators"
    },
    {
      "mask": 3,
      "type": "self",
      "filter": "owner eq me()"
    },
    {
      "mask": 1,
      "type": "self",
      "filter": "student eq student()",
      "account": "Students"
    },
    {
      "mask": 15,
      "type": "self",
      "account": "Registrar",
      "filter": "student/department eq departments()"
    }
  ]
}
