{
    "$schema": "https://themost-framework.github.io/themost/models/2018/2/schema.json",
    "@id": "https://universis.io/schemas/StudentRegisterAction",
    "name": "StudentRegisterAction",
    "title": "StudentRegisterAction",
    "hidden": false,
    "sealed": false,
    "version": "1.5",
    "inherits": "Action",
    "fields": [
        {
            "@id": "http://schema.org/actionStatus",
            "name": "actionStatus",
            "title": "actionStatus",
            "description": "Indicates the current disposition of the Action.",
            "type": "ActionStatusType",
            "value": "javascript:return { alternateName:'CompletedActionStatus' };",
            "expandable": true
        },
        {
            "@id": "http://schema.org/object",
            "name": "object",
            "title": "Student",
            "description": "A student associated with registration action",
            "type": "Student",
            "nullable": false,
            "expandable": true,
            "editable": false,
            "value": "javascript:return this.student();"
        },
        {
            "@id": "https://universis.io/properties/registrationYear",
            "name": "registrationYear",
            "title": "Registration Year",
            "description": "The academic year of this student registration action",
            "type": "AcademicYear",
            "nullable": false,
            "value": "javascript:return this.currentYear();",
            "expandable": true,
            "editable": false
        },
        {
            "@id": "https://universis.io/properties/registrationPeriod",
            "name": "registrationPeriod",
            "title": "Registration Period",
            "description": "The academic period of this student registration action",
            "type": "AcademicPeriod",
            "nullable": false,
            "expandable": true,
            "value": "javascript:return this.currentPeriod();",
            "editable": false
        },
        {
            "name": "registrationDate",
            "title": "Ημερομηνία εγγραφής",
            "description": "Ημερομηνία εγγραφής",
            "type": "DateTime",
            "nullable": true,
            "value": "javascript:return this.now();",
            "readonly": true
        }
    ],
    "constraints": [
        {
            "type": "unique",
            "fields": [
                "object",
                "registrationYear",
                "registrationPeriod"
            ]
        }
    ],
    "views": [
        {
            "name": "my",
            "filter": "object eq student()"
        },
        {
            "name": "current",
            "filter": "object eq student() and registrationYear eq currentYear() and registrationPeriod eq currentPeriod()"
        }
    ],
    "privileges": [
        {
            "mask": 15,
            "type": "global"
        },
        {
            "mask": 15,
            "type": "global",
            "account": "Administrators"
        },
        {
            "mask": 1,
            "type": "self",
            "filter": "object eq student()",
            "account": "Students"
        },
        {
            "mask": 2,
            "type": "self",
            "filter": "object eq student() and registrationYear eq currentYear() and registrationPeriod eq currentPeriod()",
            "account": "Students"
        },
        {
            "mask": 15,
            "type": "self",
            "account": "Registrar",
            "filter": "object/department eq departments()"
        }
    ],
    "eventListeners": [
        {
            "type": "./listeners/student-register-action-listener"
        }
    ]
}
