{
    "$schema": "https://themost-framework.github.io/themost/models/2018/2/schema.json",
    "@id": "https://universis.io/schemas/UpdateStudentStatusAction",
    "name": "UpdateStudentStatusAction",
    "title": "UpdateStudentStatusAction",
    "hidden": false,
    "sealed": false,
    "version": "1.0",
    "inherits": "UpdateAction",
    "fields": [
      {
        "@id": "http://schema.org/object",
        "name": "object",
        "title": "Student",
        "description": "A student associated with update status action",
        "type": "Student",
        "nullable": false,
        "expandable": true,
        "editable": false,
        "value": "javascript:return this.student();"
      },
      {
        "@id": "https://universis.io/properties/currentStudentStatus",
        "name": "currentStudentStatus",
        "title": "Current Student Status",
        "description": "Current Student Status",
        "readonly": true,
        "value": "javascript:return this.model.context.model('Student').convert(this.target.object).getStudentStatus();",
        "type": "StudentStatus",
        "editable": false
      },
      {
        "@id": "https://universis.io/properties/studentStatus",
        "name": "studentStatus",
        "title": "Student Status",
        "description": "Student Status",
        "nullable": false,
        "type": "StudentStatus",
        "editable": false
      },
      {
        "@id": "https://universis.io/properties/registrationYear",
        "name": "academicYear",
        "title": "Academic Year",
        "description": "The academic year of this student action",
        "type": "AcademicYear",
        "nullable": false,
        "expandable": true,
        "value": "javascript:return this.currentYear();",
        "editable": false
      },
      {
        "@id": "https://universis.io/properties/registrationPeriod",
        "name": "academicPeriod",
        "title": "Academic Period",
        "description": "The academic period of this student action",
        "type": "AcademicPeriod",
        "nullable": false,
        "expandable": true,
        "value": "javascript:return this.currentPeriod();",
        "editable": false
      }
    ],
    "eventListeners": [
      {
        "type": "@themost/data/previous-state-listener"
      },
      {
        "type": "./listeners/auto-complete-action-listener"
      },
      {
        "type": "./listeners/after-complete-update-student-status-action-listener"
      }
    ],
    "privileges": [
      {
        "mask": 15,
        "type": "global"
      },
      {
        "mask": 15,
        "type": "global",
        "account": "Administrators"
      },
      {
        "mask": 3,
        "type": "self",
        "account": "Registrar",
        "filter": "object/department eq departments()"
      }
    ]
  }
  