{
  "$schema": "https://themost-framework.github.io/themost/models/2018/2/schema.json",
  "@id": "https://universis.io/schemas/UpdateProgramAction",
  "name": "UpdateProgramAction",
  "title": "UpdateProgramAction",
  "hidden": false,
  "sealed": false,
  "version": "1.1",
  "inherits": "UpdateAction",
  "fields": [
    {
      "@id": "http://schema.org/actionStatus",
      "name": "actionStatus",
      "title": "actionStatus",
      "description": "Indicates the current disposition of the Action.",
      "type": "ActionStatusType",
      "value": "javascript:return { alternateName:'CompletedActionStatus' };",
      "expandable": true
    },
    {
      "@id": "http://schema.org/object",
      "name": "object",
      "title": "Student",
      "description": "A student associated with registration action",
      "type": "Student",
      "nullable": false,
      "expandable": true,
      "editable": false,
      "value": "javascript:return this.student();"
    },
    {
      "@id": "https://universis.io/properties/currentSpecialty",
      "name": "currentProgram",
      "title": "Current Study Program",
      "description": "Current study program",
      "readonly": true,
      "value": "javascript:return this.model.context.model('Student').convert(this.target.object).studyProgram;",
      "type": "StudyProgram",
      "editable": false,
      "size": 36
    },
    {
      "@id": "https://universis.io/properties/studyProgram",
      "name": "studyProgram",
      "title": "Study Program",
      "description": "Study Program",
      "nullable": false,
      "type": "StudyProgram",
      "editable": false,
      "size": 36
    },
    {
      "@id": "https://universis.io/properties/currentSpecialty",
      "name": "currentSpecialty",
      "title": "Current Study Program Specialty",
      "description": "Current study program specialty",
      "readonly": true,
      "value": "javascript:return this.model.context.model('Student').convert(this.target.object).getSpecialty();",
      "type": "StudyProgramSpecialty",
      "editable": false,
      "size": 36
    },
    {
      "@id": "https://universis.io/properties/specialty",
      "name": "specialty",
      "title": "Study Program Specialty",
      "description": "Study Program Specialty",
      "nullable": false,
      "type": "StudyProgramSpecialty",
      "editable": false,
      "size": 36
    },
    {
      "name": "updateCourse",
      "title": "Change course properties",
      "description": "Change course properties from new study program",
      "nullable": false,
      "type": "Boolean"
    },
    {
      "name": "excludeCourse",
      "title": "Exclude old courses from calculating degree",
      "description": "Mark courses as not calculated",
      "nullable": false,
      "type": "Boolean"
    },
    {
      "@id": "https://universis.io/properties/registrationYear",
      "name": "academicYear",
      "title": "Academic Year",
      "description": "The academic year of this student action",
      "type": "AcademicYear",
      "nullable": false,
      "expandable": true,
      "value": "javascript:return this.currentYear();",
      "editable": false
    },
    {
      "@id": "https://universis.io/properties/registrationPeriod",
      "name": "academicPeriod",
      "title": "Academic Period",
      "description": "The academic period of this student action",
      "type": "AcademicPeriod",
      "nullable": false,
      "expandable": true,
      "value": "javascript:return this.currentPeriod();",
      "editable": false
    },
    {
      "name": "actions",
      "title": "Related actions",
      "description": "Related actions",
      "type": "UpdateAction",
      "many": true,
      "mapping": {
        "parentModel": "UpdateProgramAction",
        "childModel": "UpdateAction",
        "parentField": "id",
        "childField": "initiator",
        "cascade": "none",
        "associationType": "association"
      }
    }
  ],
  "eventListeners": [
    {
      "type": "@themost/data/previous-state-listener"
    },
    {
      "type": "./listeners/after-complete-update-program-action-listener"
    }
  ],
  "privileges": [
    {
      "mask": 15,
      "type": "global"
    },
    {
      "mask": 15,
      "type": "global",
      "account": "Administrators"
    },
    {
      "mask": 1,
      "type": "self",
      "filter": "owner eq me()",
      "account": "Students"
    },
    {
      "mask": 15,
      "type": "self",
      "account": "Registrar",
      "filter": "object/department eq departments()"
    }
  ]
}
