{
    "$schema": "https://themost-framework.github.io/themost/models/2018/2/schema.json",
    "name": "UserRegisterAction",
    "title": "UserRegisterAction",
    "abstract": false,
    "sealed": false,
    "implements": "RegisterAction",
    "version": "2.1",
    "hidden": true,
    "fields": [
        {
            "@id": "https://themost.io/schemas/id",
            "name": "id",
            "title": "ID",
            "description": "The identifier of the item.",
            "type": "Counter",
            "primary": true,
            "nullable": false
        },
        {
            "name": "name",
            "title": "Name",
            "description": "The name of the item.",
            "type": "Text",
            "nullable": false
        },
        {
            "@id": "http://schema.org/description",
            "name": "description",
            "title": "description",
            "description": "A description of the item.",
            "type": "Text"
        },
        {
            "name": "email",
            "title": "Email Address",
            "description": "The email address of the item",
            "type": "Text",
            "size": 50
        },
        {
            "name": "externalAuthentication",
            "title": "External Authentication",
            "description": "External authentication flag.",
            "type": "Integer",
            "value": "javascript:return -1"
        },
        {
            "name": "authenticationProvider",
            "title": "Authentication Provider URL",
            "description": "Authentication Provider URL",
            "type": "Text",
            "size": 160
        },
        {
            "name": "activationCode",
            "title": "Activation Code",
            "description": "Activation Code",
            "type": "Text",
            "size": 120,
            "value": "javascript:return require('@themost/common').Guid.newGuid().toString().substr(24);"
        },
        {
            "name": "useActivationCode",
            "title": "Use Activation Code",
            "description": "Use Activation Code",
            "type": "Integer",
            "value": "javascript:return -1"
        },
        {
            "name": "providerType",
            "title": "Provider Type",
            "description": "Provider Type",
            "type": "Integer"
        },
        {
            "name": "enabled",
            "title": "Enabled",
            "description": "Indicates whether a user is enabled or not.",
            "type": "Boolean",
            "nullable": false,
            "value": "javascript:return -1;"
        },
        {
            "name": "groups",
            "title": "User Groups",
            "description": "A collection of groups where user belongs.",
            "type": "Group",
            "mapping": {
                "associationAdapter": "UserRegisterActionGroups",
                "parentModel": "Group",
                "parentField": "id",
                "childModel": "UserRegisterAction",
                "childField": "id",
                "associationType": "junction",
                "cascade": "delete",
                "select": [
                    "id",
                    "name",
                    "alternateName"
                ]
            }
        },
        {
            "name": "departments",
            "title": "User departments",
            "description": "A collection of departments where user belongs to.",
            "type": "Department",
            "mapping": {
                "associationAdapter": "UserRegisterActionDepartments",
                "parentModel": "Department",
                "parentField": "id",
                "childModel": "UserRegisterAction",
                "childField": "id",
                "associationType": "junction",
                "select": [
                    "id",
                    "name",
                    "currentYear",
                    "currentPeriod"
                ]
            }
        },
        {
            "@id": "https://themost.io/schemas/modifiedBy",
            "name": "modifiedBy",
            "title": "modifiedBy",
            "description": "Last modified by user.",
            "type": "User",
            "readonly": true,
            "value": "javascript:return this.unattendedAccount();",
            "calculation": "javascript:return this.unattendedAccount();"
        }
    ],
    "constraints": [
        {
            "type": "unique",
            "description": "User name must be unique for a specific user account.",
            "fields": [
                "name"
            ]
        }
    ],
    "eventListeners": [
        {
            "type": "@themost/data/previous-state-listener"
        },
        {
            "type": "./listeners/auto-complete-action-listener"
        },
        {
            "type": "./listeners/after-complete-user-register-action-listener"
        }
    ],
    "privileges": [
        {
            "mask": 15,
            "type": "global"
        },
        {
            "mask": 15,
            "type": "global",
            "account": "Administrators"
        }
    ]
}
