{
    "$schema": "https://themost-framework.github.io/themost/models/2018/2/schema.json",
    "@id": "http://schema.org/ValidateAction",
    "name": "ValidateAction",
    "description": "The act of organizing tasks/objects/events by associating resources to it.",
    "title": "ValidateAction",
    "abstract": false,
    "sealed": false,
    "inherits": "Action",
    "version": "1.0",
    "fields": [

    ],
    "privileges": [
        {
            "mask": 15,
            "type": "global"
        },
        {
            "mask": 15,
            "type": "global",
            "account": "Administrators"
        }
    ]
}
